ID,Name,Email,Product Title,Price,Quantity
1,sergeymat,serg@gmail.com,,,
,,,tv,1000,2
,,,tv2,4000,2
,,,car,40000,1
2,sergeymat,serg@gmail.com,,,
,,,phone,1200,1
3,yanaalkhazashvili,yana@gmail.com,,,
,,,car,37000,1
4,yanaalkhazashvili,yana@gmail.com,,,
,,,headphones,600,1
5,yanaalkhazashvili,yana@gmail.com,,,
,,,headphones,600,1
